[
    {
      "_id": 1,
      "tailNumber": "N12345",
      "numSeat": 4,
      "fuelCapacity": 50 
    },
    {
        "_id": 2,
        "tailNumber": "N67890",
        "numSeat": 8,
        "fuelCapacity": 150 
    },
    {
        "_id": 3,
        "tailNumber": "N13579",
        "numSeat": 2,
        "fuelCapacity": 35 
    }
]